…
Describe the data

``` r
citi_bike_df |>
  group_by(duration, weekdays) |>
  summarize()
```

    `summarise()` has grouped output by 'duration'. You can override using the
    `.groups` argument.

    # A tibble: 99,144 × 2
    # Groups:   duration [97,274]
       duration weekdays 
          <dbl> <chr>    
     1     1.00 Monday   
     2     1.01 Wednesday
     3     1.01 Sunday   
     4     1.01 Monday   
     5     1.01 Thursday 
     6     1.01 Monday   
     7     1.01 Tuesday  
     8     1.01 Friday   
     9     1.01 Saturday 
    10     1.01 Monday   
    # ℹ 99,134 more rows
…
